frontend/work/xrun.log
xrun(64): 24.09-s001: (c) Copyright 1995-2024 Cadence Design Systems, Inc.
TOOL:	xrun(64)	24.09-s001: Started on May 19, 2025 at 14:15:29 -03
xrun
	-64bit
	-timescale 1ns/10ps
	/home/ci_inovador/Documentos/rom/frontend/source/matrix.sv
	/home/ci_inovador/Documentos/rom/frontend/source/hdec.sv
	/home/ci_inovador/Documentos/rom/frontend/source/rom.sv
	/home/ci_inovador/Documentos/rom/frontend/testbench/rom_tb.sv
	-access +rwc
	-top rom_tb
	-define dir_home="../encoder/rom.hex"
file: /home/ci_inovador/Documentos/rom/frontend/source/matrix.sv
	module worklib.matrix:sv
		errors: 0, warnings: 0
file: /home/ci_inovador/Documentos/rom/frontend/source/hdec.sv
	module worklib.hdec:sv
		errors: 0, warnings: 0
file: /home/ci_inovador/Documentos/rom/frontend/source/rom.sv
	module worklib.rom:sv
		errors: 0, warnings: 0
file: /home/ci_inovador/Documentos/rom/frontend/testbench/rom_tb.sv
	module worklib.rom_tb:sv
		errors: 0, warnings: 0
	Elaborating the design hierarchy:
		Caching library 'worklib' ....... Done
	Top level design units:
		$unit_0x12a17026
		rom_tb
    .d_out(hdec_out)
                  |
xmelab: *W,CUVMPW (../source/rom.sv,16|18): port sizes differ in port connection(33/32) for the instance(rom_tb.dut) .
	Building instance overlay tables: .................... Done
	Generating native compiled code:
		worklib.rom:sv <0x69e354d8>
			streams:   1, words:   408
		worklib.rom_tb:sv <0x11f9b9c4>
			streams:  11, words:  8737
		worklib.hdec:sv <0x2f98e97a>
			streams:   4, words:  4420
		worklib.matrix:sv <0x3e8b21c8>
			streams:   2, words:   768
		worklib.\$unit_0x12a17026 :compilation_unit <0x0d1d7858>
			streams:   0, words:     0
	Building instance specific data structures.
	Loading native compiled code:     .................... Done
	Design hierarchy summary:
		                  Instances  Unique
		Modules:                  4       4
		Registers:               16      16
		Scalar wires:             2       -
		Expanded wires:          32       1
		Vectored wires:           6       -
		Always blocks:            6       6
		Initial blocks:           6       6
		Cont. assignments:        2       2
		Pseudo assignments:       3       -
		Compilation units:        1       1
		Simulation timescale:  10ps
	Writing initial simulation snapshot: worklib.rom_tb:sv
Loading snapshot worklib.rom_tb:sv .................... Done
xcelium> source /home/tools/cadence/installs/XCELIUM2409/tools/xcelium/files/xmsimrc
xcelium> run
Correto! adr=0, esperado=43f93dc5, recebido=43f93dc5
Correto! adr=1, esperado=7601f38f, recebido=7601f38f
Correto! adr=2, esperado=117b8ce3, recebido=117b8ce3
Correto! adr=3, esperado=eab9808e, recebido=eab9808e
Correto! adr=4, esperado=220438b6, recebido=220438b6
Correto! adr=5, esperado=3cd5df5a, recebido=3cd5df5a
Correto! adr=6, esperado=04b023c9, recebido=04b023c9
Correto! adr=7, esperado=e06d085c, recebido=e06d085c
Correto! adr=8, esperado=6956bd8e, recebido=6956bd8e
Correto! adr=9, esperado=88546b4c, recebido=88546b4c
Correto! adr=10, esperado=20357b16, recebido=20357b16
Correto! adr=11, esperado=60a4ed46, recebido=60a4ed46
Correto! adr=12, esperado=02657192, recebido=02657192
Correto! adr=13, esperado=1007ceac, recebido=1007ceac
Correto! adr=14, esperado=2efa8e8c, recebido=2efa8e8c
Correto! adr=15, esperado=cbc954c1, recebido=cbc954c1
Correto! adr=16, esperado=c8f7a9e3, recebido=c8f7a9e3
Correto! adr=17, esperado=8aa0d300, recebido=8aa0d300
Correto! adr=18, esperado=21f76d8a, recebido=21f76d8a
Correto! adr=19, esperado=2238703e, recebido=2238703e
Correto! adr=20, esperado=fd9bceff, recebido=fd9bceff
Correto! adr=21, esperado=db7fc385, recebido=db7fc385
Correto! adr=22, esperado=59b4968b, recebido=59b4968b
Correto! adr=23, esperado=c9b424ad, recebido=c9b424ad
Correto! adr=24, esperado=e72f303d, recebido=e72f303d
Correto! adr=25, esperado=f02f4cba, recebido=f02f4cba
Correto! adr=26, esperado=1fc3c2a5, recebido=1fc3c2a5
Correto! adr=27, esperado=02f0a1f7, recebido=02f0a1f7
Correto! adr=28, esperado=a45b4752, recebido=a45b4752
Correto! adr=29, esperado=4de84bd4, recebido=4de84bd4
Correto! adr=30, esperado=5042210c, recebido=5042210c
Correto! adr=31, esperado=0f08ea81, recebido=0f08ea81
Correto! adr=32, esperado=2d126bd1, recebido=2d126bd1
Correto! adr=33, esperado=4f0c8e49, recebido=4f0c8e49
Correto! adr=34, esperado=335c028f, recebido=335c028f
Correto! adr=35, esperado=05064aae, recebido=05064aae
Correto! adr=36, esperado=8416f6a5, recebido=8416f6a5
Correto! adr=37, esperado=10ac8148, recebido=10ac8148
Correto! adr=38, esperado=86c6f518, recebido=86c6f518
Correto! adr=39, esperado=5760c05c, recebido=5760c05c
Correto! adr=40, esperado=1872d597, recebido=1872d597
Correto! adr=41, esperado=1002d13d, recebido=1002d13d
Correto! adr=42, esperado=b7454f2f, recebido=b7454f2f
Correto! adr=43, esperado=09775264, recebido=09775264
Correto! adr=44, esperado=56ff8ecc, recebido=56ff8ecc
Correto! adr=45, esperado=77f7f94f, recebido=77f7f94f
Correto! adr=46, esperado=4a242b75, recebido=4a242b75
Correto! adr=47, esperado=9518581c, recebido=9518581c
Correto! adr=48, esperado=6be2b446, recebido=6be2b446
Correto! adr=49, esperado=1e9dc2e3, recebido=1e9dc2e3
Correto! adr=50, esperado=76c0d42b, recebido=76c0d42b
Correto! adr=51, esperado=7ffdb0d6, recebido=7ffdb0d6
Correto! adr=52, esperado=340bc760, recebido=340bc760
Correto! adr=53, esperado=32b3b519, recebido=32b3b519
Correto! adr=54, esperado=efff9eaa, recebido=efff9eaa
Correto! adr=55, esperado=a14aeb60, recebido=a14aeb60
Correto! adr=56, esperado=5eb68c54, recebido=5eb68c54
Correto! adr=57, esperado=9926744c, recebido=9926744c
Correto! adr=58, esperado=ddd236eb, recebido=ddd236eb
Correto! adr=59, esperado=17125d85, recebido=17125d85
Correto! adr=60, esperado=beebcdb7, recebido=beebcdb7
Correto! adr=61, esperado=fa8d1195, recebido=fa8d1195
Correto! adr=62, esperado=06b95aff, recebido=06b95aff
Correto! adr=63, esperado=ebd22b88, recebido=ebd22b88
Correto! adr=64, esperado=cd008ffa, recebido=cd008ffa
Correto! adr=65, esperado=80aa4a47, recebido=80aa4a47
Correto! adr=66, esperado=293d0695, recebido=293d0695
Correto! adr=67, esperado=6bf33fae, recebido=6bf33fae
Correto! adr=68, esperado=5814b4e9, recebido=5814b4e9
Correto! adr=69, esperado=43eeb771, recebido=43eeb771
Correto! adr=70, esperado=85760e79, recebido=85760e79
Correto! adr=71, esperado=2b4a31b3, recebido=2b4a31b3
Correto! adr=72, esperado=67930f2d, recebido=67930f2d
Correto! adr=73, esperado=68f3ed61, recebido=68f3ed61
Correto! adr=74, esperado=96842c11, recebido=96842c11
Correto! adr=75, esperado=ba991e51, recebido=ba991e51
Correto! adr=76, esperado=4cb7e5cc, recebido=4cb7e5cc
Correto! adr=77, esperado=ee018b1e, recebido=ee018b1e
Correto! adr=78, esperado=fc1878e0, recebido=fc1878e0
Correto! adr=79, esperado=0d0e6ebf, recebido=0d0e6ebf
Correto! adr=80, esperado=e403e7a6, recebido=e403e7a6
Correto! adr=81, esperado=288c39eb, recebido=288c39eb
Correto! adr=82, esperado=93ea5a06, recebido=93ea5a06
Correto! adr=83, esperado=8dc1902e, recebido=8dc1902e
Correto! adr=84, esperado=06c78ef7, recebido=06c78ef7
Correto! adr=85, esperado=f2b39cc9, recebido=f2b39cc9
Correto! adr=86, esperado=c343dbbc, recebido=c343dbbc
Correto! adr=87, esperado=e5389b4b, recebido=e5389b4b
Correto! adr=88, esperado=2ca1f4da, recebido=2ca1f4da
Correto! adr=89, esperado=88c02ff3, recebido=88c02ff3
Correto! adr=90, esperado=f0737cda, recebido=f0737cda
Correto! adr=91, esperado=6ee4ebc2, recebido=6ee4ebc2
Correto! adr=92, esperado=3cf914c2, recebido=3cf914c2
Correto! adr=93, esperado=16ad1861, recebido=16ad1861
Correto! adr=94, esperado=2c596a53, recebido=2c596a53
Correto! adr=95, esperado=5ea3a7b7, recebido=5ea3a7b7
Correto! adr=96, esperado=90838001, recebido=90838001
Correto! adr=97, esperado=f59be348, recebido=f59be348
Correto! adr=98, esperado=0be02ab5, recebido=0be02ab5
Correto! adr=99, esperado=963e374d, recebido=963e374d
Correto! adr=100, esperado=22be8143, recebido=22be8143
Correto! adr=101, esperado=995a3597, recebido=995a3597
Correto! adr=102, esperado=b17eb9ab, recebido=b17eb9ab
Correto! adr=103, esperado=2aebac22, recebido=2aebac22
Correto! adr=104, esperado=f379b012, recebido=f379b012
Correto! adr=105, esperado=2de66b79, recebido=2de66b79
Correto! adr=106, esperado=06b5137d, recebido=06b5137d
Correto! adr=107, esperado=9aca18cf, recebido=9aca18cf
Correto! adr=108, esperado=984bf452, recebido=984bf452
Correto! adr=109, esperado=e4e727d8, recebido=e4e727d8
Correto! adr=110, esperado=2594308d, recebido=2594308d
Correto! adr=111, esperado=b26ad86a, recebido=b26ad86a
Correto! adr=112, esperado=fe18f9c3, recebido=fe18f9c3
Correto! adr=113, esperado=f32ed3d6, recebido=f32ed3d6
Correto! adr=114, esperado=f23570da, recebido=f23570da
Correto! adr=115, esperado=2243c605, recebido=2243c605
Correto! adr=116, esperado=5a911384, recebido=5a911384
Correto! adr=117, esperado=3e3d0e54, recebido=3e3d0e54
Correto! adr=118, esperado=e43f777f, recebido=e43f777f
Correto! adr=119, esperado=c43c642e, recebido=c43c642e
Correto! adr=120, esperado=4db28f8d, recebido=4db28f8d
Correto! adr=121, esperado=b9bd0b6d, recebido=b9bd0b6d
Correto! adr=122, esperado=00647633, recebido=00647633
Correto! adr=123, esperado=9124f46f, recebido=9124f46f
Correto! adr=124, esperado=33437a33, recebido=33437a33
Correto! adr=125, esperado=7507e3f9, recebido=7507e3f9
Correto! adr=126, esperado=01e1e8c8, recebido=01e1e8c8
Correto! adr=127, esperado=463b7ece, recebido=463b7ece
Correto! adr=128, esperado=a45ad1a6, recebido=a45ad1a6
Correto! adr=129, esperado=589ed50d, recebido=589ed50d
Correto! adr=130, esperado=b403c0ae, recebido=b403c0ae
Correto! adr=131, esperado=baa8c94d, recebido=baa8c94d
Correto! adr=132, esperado=28d62973, recebido=28d62973
Correto! adr=133, esperado=93b26f78, recebido=93b26f78
Correto! adr=134, esperado=7b9e006f, recebido=7b9e006f
Correto! adr=135, esperado=e5023f68, recebido=e5023f68
Correto! adr=136, esperado=18e4be04, recebido=18e4be04
Correto! adr=137, esperado=b99db745, recebido=b99db745
Correto! adr=138, esperado=1096c733, recebido=1096c733
Correto! adr=139, esperado=90cac99c, recebido=90cac99c
Correto! adr=140, esperado=ae7bf81d, recebido=ae7bf81d
Correto! adr=141, esperado=8f67333e, recebido=8f67333e
Correto! adr=142, esperado=6759cc3c, recebido=6759cc3c
Correto! adr=143, esperado=c3ed94dc, recebido=c3ed94dc
Correto! adr=144, esperado=46e2605f, recebido=46e2605f
Correto! adr=145, esperado=8943ec65, recebido=8943ec65
Correto! adr=146, esperado=ca614a68, recebido=ca614a68
Correto! adr=147, esperado=d445ca1c, recebido=d445ca1c
Correto! adr=148, esperado=d42702c7, recebido=d42702c7
Correto! adr=149, esperado=f8115d7b, recebido=f8115d7b
Correto! adr=150, esperado=23b45bb4, recebido=23b45bb4
Correto! adr=151, esperado=2d1635c9, recebido=2d1635c9
Correto! adr=152, esperado=7ea7422e, recebido=7ea7422e
Correto! adr=153, esperado=e6dd527b, recebido=e6dd527b
Correto! adr=154, esperado=7665c4b6, recebido=7665c4b6
Correto! adr=155, esperado=c493df4c, recebido=c493df4c
Correto! adr=156, esperado=768b1bc9, recebido=768b1bc9
Correto! adr=157, esperado=a85db81d, recebido=a85db81d
Correto! adr=158, esperado=88133020, recebido=88133020
Correto! adr=159, esperado=4159908d, recebido=4159908d
Correto! adr=160, esperado=f546daa8, recebido=f546daa8
Correto! adr=161, esperado=14755b56, recebido=14755b56
Correto! adr=162, esperado=ba67da41, recebido=ba67da41
Correto! adr=163, esperado=cff14d6b, recebido=cff14d6b
Correto! adr=164, esperado=6f1a3b39, recebido=6f1a3b39
Correto! adr=165, esperado=75b498d4, recebido=75b498d4
Correto! adr=166, esperado=1498ac85, recebido=1498ac85
Correto! adr=167, esperado=a850bb47, recebido=a850bb47
Correto! adr=168, esperado=f493fec4, recebido=f493fec4
Correto! adr=169, esperado=26d6fc85, recebido=26d6fc85
Correto! adr=170, esperado=7ce8c8f3, recebido=7ce8c8f3
Correto! adr=171, esperado=43597879, recebido=43597879
Correto! adr=172, esperado=c409eeee, recebido=c409eeee
Correto! adr=173, esperado=e041d10f, recebido=e041d10f
Correto! adr=174, esperado=222785ac, recebido=222785ac
Correto! adr=175, esperado=405763d7, recebido=405763d7
Correto! adr=176, esperado=0b205138, recebido=0b205138
Correto! adr=177, esperado=b58b9f58, recebido=b58b9f58
Correto! adr=178, esperado=152dd870, recebido=152dd870
Correto! adr=179, esperado=fa85d433, recebido=fa85d433
Correto! adr=180, esperado=d849ca80, recebido=d849ca80
Correto! adr=181, esperado=c2f19dfd, recebido=c2f19dfd
Correto! adr=182, esperado=1262321b, recebido=1262321b
Correto! adr=183, esperado=ce88bfdb, recebido=ce88bfdb
Correto! adr=184, esperado=3c41b27d, recebido=3c41b27d
Correto! adr=185, esperado=8adf10dc, recebido=8adf10dc
Correto! adr=186, esperado=7b38ca22, recebido=7b38ca22
Correto! adr=187, esperado=0ff1d419, recebido=0ff1d419
Correto! adr=188, esperado=9b8fd745, recebido=9b8fd745
Correto! adr=189, esperado=036d988d, recebido=036d988d
Correto! adr=190, esperado=7fad5a19, recebido=7fad5a19
Correto! adr=191, esperado=aebe7cb3, recebido=aebe7cb3
Correto! adr=192, esperado=3007b0c8, recebido=3007b0c8
Correto! adr=193, esperado=53de71e2, recebido=53de71e2
Correto! adr=194, esperado=77cb492e, recebido=77cb492e
Correto! adr=195, esperado=8cd9db6a, recebido=8cd9db6a
Correto! adr=196, esperado=ba4b0454, recebido=ba4b0454
Correto! adr=197, esperado=4221a56d, recebido=4221a56d
Correto! adr=198, esperado=6d2a47ad, recebido=6d2a47ad
Correto! adr=199, esperado=8395af7d, recebido=8395af7d
Correto! adr=200, esperado=6347f811, recebido=6347f811
Correto! adr=201, esperado=505126f8, recebido=505126f8
Correto! adr=202, esperado=d46b5a7c, recebido=d46b5a7c
Correto! adr=203, esperado=19362d25, recebido=19362d25
Correto! adr=204, esperado=cdb39685, recebido=cdb39685
Correto! adr=205, esperado=8a37e50d, recebido=8a37e50d
Correto! adr=206, esperado=76bd569e, recebido=76bd569e
Correto! adr=207, esperado=e667c519, recebido=e667c519
Correto! adr=208, esperado=5794c20f, recebido=5794c20f
Correto! adr=209, esperado=02c5c86e, recebido=02c5c86e
Correto! adr=210, esperado=8b5accb2, recebido=8b5accb2
Correto! adr=211, esperado=abc4dc09, recebido=abc4dc09
Correto! adr=212, esperado=8bb9986e, recebido=8bb9986e
Correto! adr=213, esperado=019ba39c, recebido=019ba39c
Correto! adr=214, esperado=01096473, recebido=01096473
Correto! adr=215, esperado=17507225, recebido=17507225
Correto! adr=216, esperado=c33f4639, recebido=c33f4639
Correto! adr=217, esperado=e0841252, recebido=e0841252
Correto! adr=218, esperado=f79ba838, recebido=f79ba838
Correto! adr=219, esperado=39feba95, recebido=39feba95
Correto! adr=220, esperado=f70f4a66, recebido=f70f4a66
Correto! adr=221, esperado=98f84908, recebido=98f84908
Correto! adr=222, esperado=69704074, recebido=69704074
Correto! adr=223, esperado=ad2aa301, recebido=ad2aa301
Correto! adr=224, esperado=c15d29c6, recebido=c15d29c6
Correto! adr=225, esperado=0199d473, recebido=0199d473
Correto! adr=226, esperado=04f19f35, recebido=04f19f35
Correto! adr=227, esperado=681f4b09, recebido=681f4b09
Correto! adr=228, esperado=8f299285, recebido=8f299285
Correto! adr=229, esperado=bbb84901, recebido=bbb84901
Correto! adr=230, esperado=36151ba6, recebido=36151ba6
Correto! adr=231, esperado=45916bcb, recebido=45916bcb
Correto! adr=232, esperado=01c0efad, recebido=01c0efad
Correto! adr=233, esperado=d0d0e260, recebido=d0d0e260
Correto! adr=234, esperado=5fdf7d8f, recebido=5fdf7d8f
Correto! adr=235, esperado=3922af62, recebido=3922af62
Correto! adr=236, esperado=803a6ca1, recebido=803a6ca1
Correto! adr=237, esperado=000712f6, recebido=000712f6
Correto! adr=238, esperado=45dcf8d2, recebido=45dcf8d2
Correto! adr=239, esperado=34dff863, recebido=34dff863
Correto! adr=240, esperado=f8fc68a4, recebido=f8fc68a4
Correto! adr=241, esperado=bbb20368, recebido=bbb20368
Correto! adr=242, esperado=a5a898ee, recebido=a5a898ee
Correto! adr=243, esperado=bec19960, recebido=bec19960
Correto! adr=244, esperado=d3355a52, recebido=d3355a52
Correto! adr=245, esperado=d6d00216, recebido=d6d00216
Correto! adr=246, esperado=00681c7d, recebido=00681c7d
Correto! adr=247, esperado=362f7c67, recebido=362f7c67
Correto! adr=248, esperado=10622323, recebido=10622323
Correto! adr=249, esperado=e28ce29b, recebido=e28ce29b
Correto! adr=250, esperado=944f40b8, recebido=944f40b8
Correto! adr=251, esperado=c9793a82, recebido=c9793a82
Correto! adr=252, esperado=9dcdd2ee, recebido=9dcdd2ee
Correto! adr=253, esperado=3bbd4d4f, recebido=3bbd4d4f
Correto! adr=254, esperado=861b7cf0, recebido=861b7cf0
Correto! adr=255, esperado=1b5d2336, recebido=1b5d2336
Correto! adr=256, esperado=d608db62, recebido=d608db62
Correto! adr=257, esperado=c868fec7, recebido=c868fec7
Correto! adr=258, esperado=3a972e15, recebido=3a972e15
Correto! adr=259, esperado=98843407, recebido=98843407
Correto! adr=260, esperado=3274b38c, recebido=3274b38c
Correto! adr=261, esperado=653af751, recebido=653af751
Correto! adr=262, esperado=e0193231, recebido=e0193231
Correto! adr=263, esperado=7d03fff0, recebido=7d03fff0
Correto! adr=264, esperado=2cbeeb56, recebido=2cbeeb56
Correto! adr=265, esperado=03119a7b, recebido=03119a7b
Correto! adr=266, esperado=2803f3ec, recebido=2803f3ec
Correto! adr=267, esperado=89dc86ee, recebido=89dc86ee
Correto! adr=268, esperado=505eaf04, recebido=505eaf04
Correto! adr=269, esperado=7472be8b, recebido=7472be8b
Correto! adr=270, esperado=3044e607, recebido=3044e607
Correto! adr=271, esperado=6a7dfd74, recebido=6a7dfd74
Correto! adr=272, esperado=7c19bab7, recebido=7c19bab7
Correto! adr=273, esperado=eb12ac06, recebido=eb12ac06
Correto! adr=274, esperado=9cd66ee3, recebido=9cd66ee3
Correto! adr=275, esperado=ca3e83f6, recebido=ca3e83f6
Correto! adr=276, esperado=537ebdec, recebido=537ebdec
Correto! adr=277, esperado=25500d2c, recebido=25500d2c
Correto! adr=278, esperado=e14043f9, recebido=e14043f9
Correto! adr=279, esperado=19e5ce60, recebido=19e5ce60
Correto! adr=280, esperado=e06b2efb, recebido=e06b2efb
Correto! adr=281, esperado=4bb6cd78, recebido=4bb6cd78
Correto! adr=282, esperado=ba143562, recebido=ba143562
Correto! adr=283, esperado=0523bb9e, recebido=0523bb9e
Correto! adr=284, esperado=64878e9b, recebido=64878e9b
Correto! adr=285, esperado=7e7ee922, recebido=7e7ee922
Correto! adr=286, esperado=d670694f, recebido=d670694f
Correto! adr=287, esperado=9816dd14, recebido=9816dd14
Correto! adr=288, esperado=5ac71b5b, recebido=5ac71b5b
Correto! adr=289, esperado=13092c9e, recebido=13092c9e
Correto! adr=290, esperado=b17e078f, recebido=b17e078f
Correto! adr=291, esperado=14c8ee25, recebido=14c8ee25
Correto! adr=292, esperado=a8ebf529, recebido=a8ebf529
Correto! adr=293, esperado=8167e41d, recebido=8167e41d
Correto! adr=294, esperado=9bf5550e, recebido=9bf5550e
Correto! adr=295, esperado=78ac3bae, recebido=78ac3bae
Correto! adr=296, esperado=0100b0cd, recebido=0100b0cd
Correto! adr=297, esperado=01d57b09, recebido=01d57b09
Correto! adr=298, esperado=f5983f52, recebido=f5983f52
Correto! adr=299, esperado=b226fb8a, recebido=b226fb8a
Correto! adr=300, esperado=72df5b6c, recebido=72df5b6c
Correto! adr=301, esperado=da380b8c, recebido=da380b8c
Correto! adr=302, esperado=96b557ff, recebido=96b557ff
Correto! adr=303, esperado=8602940d, recebido=8602940d
Correto! adr=304, esperado=2daaee07, recebido=2daaee07
Correto! adr=305, esperado=5ba5de08, recebido=5ba5de08
Correto! adr=306, esperado=69a64052, recebido=69a64052
Correto! adr=307, esperado=24f9d38b, recebido=24f9d38b
Correto! adr=308, esperado=715430fb, recebido=715430fb
Correto! adr=309, esperado=8fdad89d, recebido=8fdad89d
Correto! adr=310, esperado=345184a7, recebido=345184a7
Correto! adr=311, esperado=713117d1, recebido=713117d1
Correto! adr=312, esperado=b0170f81, recebido=b0170f81
Correto! adr=313, esperado=96c4dea8, recebido=96c4dea8
Correto! adr=314, esperado=91a9e7f5, recebido=91a9e7f5
Correto! adr=315, esperado=f3bc65a9, recebido=f3bc65a9
Correto! adr=316, esperado=dffe5b2e, recebido=dffe5b2e
Correto! adr=317, esperado=b3f92040, recebido=b3f92040
Correto! adr=318, esperado=1b2d1f4f, recebido=1b2d1f4f
Correto! adr=319, esperado=82177059, recebido=82177059
Correto! adr=320, esperado=fc5bff72, recebido=fc5bff72
Correto! adr=321, esperado=0c3d59ba, recebido=0c3d59ba
Correto! adr=322, esperado=c266fd63, recebido=c266fd63
Correto! adr=323, esperado=93aa9122, recebido=93aa9122
Correto! adr=324, esperado=b74fa51b, recebido=b74fa51b
Correto! adr=325, esperado=12ff0324, recebido=12ff0324
Correto! adr=326, esperado=5a6b0dfd, recebido=5a6b0dfd
Correto! adr=327, esperado=474caec3, recebido=474caec3
Correto! adr=328, esperado=5b48c5d1, recebido=5b48c5d1
Correto! adr=329, esperado=a7db6fcc, recebido=a7db6fcc
Correto! adr=330, esperado=515ea183, recebido=515ea183
Correto! adr=331, esperado=18be14f5, recebido=18be14f5
Correto! adr=332, esperado=dc7c2f99, recebido=dc7c2f99
Correto! adr=333, esperado=e418ddb8, recebido=e418ddb8
Correto! adr=334, esperado=99ee4878, recebido=99ee4878
Correto! adr=335, esperado=462d3bee, recebido=462d3bee
Correto! adr=336, esperado=1a71f855, recebido=1a71f855
Correto! adr=337, esperado=982a752d, recebido=982a752d
Correto! adr=338, esperado=c4d6befb, recebido=c4d6befb
Correto! adr=339, esperado=e5b37fe1, recebido=e5b37fe1
Correto! adr=340, esperado=5176e140, recebido=5176e140
Correto! adr=341, esperado=792f382b, recebido=792f382b
Correto! adr=342, esperado=4a5b4847, recebido=4a5b4847
Correto! adr=343, esperado=aad5c87a, recebido=aad5c87a
Correto! adr=344, esperado=bc292a75, recebido=bc292a75
Correto! adr=345, esperado=fe74e1ed, recebido=fe74e1ed
Correto! adr=346, esperado=03cf7a32, recebido=03cf7a32
Correto! adr=347, esperado=5c042065, recebido=5c042065
Correto! adr=348, esperado=64f1d667, recebido=64f1d667
Correto! adr=349, esperado=eeefb66b, recebido=eeefb66b
Correto! adr=350, esperado=d51278b1, recebido=d51278b1
Correto! adr=351, esperado=f81e3cc6, recebido=f81e3cc6
Correto! adr=352, esperado=27845d67, recebido=27845d67
Correto! adr=353, esperado=9ec441d9, recebido=9ec441d9
Correto! adr=354, esperado=860ea151, recebido=860ea151
Correto! adr=355, esperado=8bebf4c0, recebido=8bebf4c0
Correto! adr=356, esperado=e260d123, recebido=e260d123
Correto! adr=357, esperado=dcc20828, recebido=dcc20828
Correto! adr=358, esperado=cc39a6bd, recebido=cc39a6bd
Correto! adr=359, esperado=b7a3a8f0, recebido=b7a3a8f0
Correto! adr=360, esperado=d8537023, recebido=d8537023
Correto! adr=361, esperado=8fe52482, recebido=8fe52482
Correto! adr=362, esperado=84151c3d, recebido=84151c3d
Correto! adr=363, esperado=e4659af0, recebido=e4659af0
Correto! adr=364, esperado=41f6a94d, recebido=41f6a94d
Correto! adr=365, esperado=04d4d8d0, recebido=04d4d8d0
Correto! adr=366, esperado=1ab17132, recebido=1ab17132
Correto! adr=367, esperado=29c034d7, recebido=29c034d7
Correto! adr=368, esperado=0f2c8f61, recebido=0f2c8f61
Correto! adr=369, esperado=eb620d36, recebido=eb620d36
Correto! adr=370, esperado=27275c9d, recebido=27275c9d
Correto! adr=371, esperado=e32c40b6, recebido=e32c40b6
Correto! adr=372, esperado=d8a5bc7b, recebido=d8a5bc7b
Correto! adr=373, esperado=040fbf94, recebido=040fbf94
Correto! adr=374, esperado=341db898, recebido=341db898
Correto! adr=375, esperado=f58f101b, recebido=f58f101b
Correto! adr=376, esperado=015fa596, recebido=015fa596
Correto! adr=377, esperado=7d876305, recebido=7d876305
Correto! adr=378, esperado=b946cdd9, recebido=b946cdd9
Correto! adr=379, esperado=c4ba9390, recebido=c4ba9390
Correto! adr=380, esperado=08225e05, recebido=08225e05
Correto! adr=381, esperado=021f2f61, recebido=021f2f61
Correto! adr=382, esperado=44e10f34, recebido=44e10f34
Correto! adr=383, esperado=d8eb621b, recebido=d8eb621b
Correto! adr=384, esperado=0901cafa, recebido=0901cafa
Correto! adr=385, esperado=755d60bc, recebido=755d60bc
Correto! adr=386, esperado=d5374518, recebido=d5374518
Correto! adr=387, esperado=344bb0bd, recebido=344bb0bd
Correto! adr=388, esperado=6ede4701, recebido=6ede4701
Correto! adr=389, esperado=616f66e7, recebido=616f66e7
Correto! adr=390, esperado=621f290f, recebido=621f290f
Correto! adr=391, esperado=587039f4, recebido=587039f4
Correto! adr=392, esperado=d4e4b584, recebido=d4e4b584
Correto! adr=393, esperado=14b104ec, recebido=14b104ec
Correto! adr=394, esperado=967c7140, recebido=967c7140
Correto! adr=395, esperado=fbdb153c, recebido=fbdb153c
Correto! adr=396, esperado=180d0646, recebido=180d0646
Correto! adr=397, esperado=6f2a6094, recebido=6f2a6094
Correto! adr=398, esperado=b9bc4bef, recebido=b9bc4bef
Correto! adr=399, esperado=6f797e88, recebido=6f797e88
Correto! adr=400, esperado=989c28ea, recebido=989c28ea
Correto! adr=401, esperado=600d01e3, recebido=600d01e3
Correto! adr=402, esperado=c9584af9, recebido=c9584af9
Correto! adr=403, esperado=b4238dcb, recebido=b4238dcb
Correto! adr=404, esperado=aba1706c, recebido=aba1706c
Correto! adr=405, esperado=133ac299, recebido=133ac299
Correto! adr=406, esperado=c258bf5b, recebido=c258bf5b
Correto! adr=407, esperado=401fde74, recebido=401fde74
Correto! adr=408, esperado=3c7a66a5, recebido=3c7a66a5
Correto! adr=409, esperado=cebcadb1, recebido=cebcadb1
Correto! adr=410, esperado=1ace84aa, recebido=1ace84aa
Correto! adr=411, esperado=749f26eb, recebido=749f26eb
Correto! adr=412, esperado=9e4f0fc9, recebido=9e4f0fc9
Correto! adr=413, esperado=804bcee3, recebido=804bcee3
Correto! adr=414, esperado=6b583c9a, recebido=6b583c9a
Correto! adr=415, esperado=c340c017, recebido=c340c017
Correto! adr=416, esperado=8d939dea, recebido=8d939dea
Correto! adr=417, esperado=fac9f223, recebido=fac9f223
Correto! adr=418, esperado=48a1fa79, recebido=48a1fa79
Correto! adr=419, esperado=838a1cda, recebido=838a1cda
Correto! adr=420, esperado=61889475, recebido=61889475
Correto! adr=421, esperado=e3c75322, recebido=e3c75322
Correto! adr=422, esperado=4cdf5eb3, recebido=4cdf5eb3
Correto! adr=423, esperado=78743191, recebido=78743191
Correto! adr=424, esperado=6dba5bb1, recebido=6dba5bb1
Correto! adr=425, esperado=51003cca, recebido=51003cca
Correto! adr=426, esperado=5154224e, recebido=5154224e
Correto! adr=427, esperado=05dfcb96, recebido=05dfcb96
Correto! adr=428, esperado=93804445, recebido=93804445
Correto! adr=429, esperado=15da98c4, recebido=15da98c4
Correto! adr=430, esperado=d7cf126d, recebido=d7cf126d
Correto! adr=431, esperado=1618d8c0, recebido=1618d8c0
Correto! adr=432, esperado=0380fab1, recebido=0380fab1
Correto! adr=433, esperado=c0eb6ef4, recebido=c0eb6ef4
Correto! adr=434, esperado=a42a7bcf, recebido=a42a7bcf
Correto! adr=435, esperado=af599ee0, recebido=af599ee0
Correto! adr=436, esperado=2f2a6ad3, recebido=2f2a6ad3
Correto! adr=437, esperado=496f54f9, recebido=496f54f9
Correto! adr=438, esperado=85cc0650, recebido=85cc0650
Correto! adr=439, esperado=3947e344, recebido=3947e344
Correto! adr=440, esperado=ea3a1361, recebido=ea3a1361
Correto! adr=441, esperado=6cd4cdb0, recebido=6cd4cdb0
Correto! adr=442, esperado=51270065, recebido=51270065
Correto! adr=443, esperado=72730236, recebido=72730236
Correto! adr=444, esperado=bc39c973, recebido=bc39c973
Correto! adr=445, esperado=bc3198b0, recebido=bc3198b0
Correto! adr=446, esperado=09381aa1, recebido=09381aa1
Correto! adr=447, esperado=15dbf67b, recebido=15dbf67b
Correto! adr=448, esperado=61faebf8, recebido=61faebf8
Correto! adr=449, esperado=59c8f1ce, recebido=59c8f1ce
Correto! adr=450, esperado=390c9334, recebido=390c9334
Correto! adr=451, esperado=306850d6, recebido=306850d6
Correto! adr=452, esperado=7f1f073e, recebido=7f1f073e
Correto! adr=453, esperado=668ac098, recebido=668ac098
Correto! adr=454, esperado=7d37d169, recebido=7d37d169
Correto! adr=455, esperado=266f1f85, recebido=266f1f85
Correto! adr=456, esperado=7f94e86d, recebido=7f94e86d
Correto! adr=457, esperado=1f92b7db, recebido=1f92b7db
Correto! adr=458, esperado=3d5d7125, recebido=3d5d7125
Correto! adr=459, esperado=6932c5c1, recebido=6932c5c1
Correto! adr=460, esperado=a910210a, recebido=a910210a
Correto! adr=461, esperado=aba6651f, recebido=aba6651f
Correto! adr=462, esperado=95acbe6d, recebido=95acbe6d
Correto! adr=463, esperado=dc5fc340, recebido=dc5fc340
